HW_2/VivodoUsed/pipelined/HDL_HW2/HDL_HW2.sim/sim_1/impl/func/xsim/hw2_pipe.vcd
$date
   Sat Nov  1 15:05:28 2025
$end
$version
  2018.3
$end
$timescale
  1ps
$end
$scope module testbench $end
$var reg 8 ! a [7:0] $end
$var reg 8 " b [7:0] $end
$var reg 8 # c [7:0] $end
$var reg 1 $ s $end
$var reg 1 % clk $end
$var reg 1 & reset $end
$var reg 9 ' add_sub_res [8:0] $end
$var reg 17 ( temp_result [16:0] $end
$var reg 16 ) expected_d [15:0] $end
$var wire 16 * d_pipe [15:0] $end
$var reg 16 + i_p1 [15:0] $end
$var reg 16 , i_p2 [15:0] $end
$var reg 8 - a_p1 [7:0] $end
$var reg 8 . b_p1 [7:0] $end
$var reg 8 / c_p1 [7:0] $end
$var reg 1 0 s_p1 $end
$var reg 8 1 a_p2 [7:0] $end
$var reg 8 2 b_p2 [7:0] $end
$var reg 8 3 c_p2 [7:0] $end
$var reg 1 4 s_p2 $end
$var reg 16 5 i [15:0] $end
$var reg 32 6 errors [31:0] $end
$scope module u_pipe $end
$var wire 8 7 a [7:0] $end
$var wire 8 8 a_IBUF [7:0] $end
$var wire 9 9 add_sub_out [8:0] $end
$var wire 8 : b [7:0] $end
$var wire 8 ; b_IBUF [7:0] $end
$var wire 8 < c [7:0] $end
$var wire 8 = c_IBUF [7:0] $end
$var wire 8 > c_out [7:0] $end
$var wire 1 ? clk $end
$var wire 1 @ clk_IBUF $end
$var wire 1 A clk_IBUF_BUFG $end
$var wire 16 * d [15:0] $end
$var wire 16 B d_OBUF [15:0] $end
$var wire 1 C reset $end
$var wire 1 D reset_IBUF $end
$var wire 1 E s $end
$var wire 1 F s_IBUF $end
$var wire 1 G stage1_inst_n_0 $end
$var wire 1 H stage1_inst_n_1 $end
$var wire 1 I stage1_inst_n_2 $end
$var wire 1 J stage1_inst_n_20 $end
$var wire 1 K stage1_inst_n_21 $end
$var wire 1 L stage1_inst_n_22 $end
$var wire 1 M stage1_inst_n_23 $end
$var wire 1 N stage1_inst_n_24 $end
$var wire 1 O stage1_inst_n_25 $end
$var wire 1 P stage1_inst_n_26 $end
$var wire 1 Q stage1_inst_n_27 $end
$var wire 1 R stage1_inst_n_28 $end
$var wire 1 S stage1_inst_n_29 $end
$var wire 1 T stage1_inst_n_30 $end
$var wire 1 U stage1_inst_n_31 $end
$var wire 1 V stage2_inst_n_0 $end
$var wire 1 W stage2_inst_n_1 $end
$var wire 1 X stage2_inst_n_2 $end
$var wire 1 Y stage2_inst_n_3 $end
$scope module stage1_inst $end
$var wire 1 D AR [0:0] $end
$var wire 1 A CLK $end
$var wire 8 = D [7:0] $end
$var wire 1 V DI [0:0] $end
$var wire 9 9 Q [8:0] $end
$var wire 3 Z S [2:0] $end
$var wire 1 [ _carry__0_i_1_n_0 $end
$var wire 1 \ _carry__0_i_2_n_0 $end
$var wire 1 ] _carry__0_i_3_n_0 $end
$var wire 1 ^ _carry__0_i_4_n_0 $end
$var wire 1 _ _carry__0_i_5_n_0 $end
$var wire 1 ` _carry__0_n_0 $end
$var wire 1 a _carry_i_1_n_0 $end
$var wire 1 b _carry_i_2_n_0 $end
$var wire 1 c _carry_i_3_n_0 $end
$var wire 1 d _carry_i_4_n_0 $end
$var wire 1 e _carry_i_5_n_0 $end
$var wire 1 f _carry_n_0 $end
$var wire 8 8 a_IBUF [7:0] $end
$var wire 1 O \add_sub_out_reg[1]_0  [0:0] $end
$var wire 3 g \add_sub_out_reg[5]_0  [2:0] $end
$var wire 1 J \add_sub_out_reg[7]_0  [0:0] $end
$var wire 1 K \add_sub_out_reg[7]_1  [0:0] $end
$var wire 1 N \add_sub_out_reg[7]_2  [0:0] $end
$var wire 2 h \add_sub_out_reg[7]_3  [1:0] $end
$var wire 1 U \add_sub_out_reg[7]_4  [0:0] $end
$var wire 9 i add_sub_result [8:0] $end
$var wire 8 ; b_IBUF [7:0] $end
$var wire 2 j \c_out_reg[4]_0  [1:0] $end
$var wire 8 > \c_out_reg[7]_0  [7:0] $end
$var wire 1 X \d_reg[15]_i_12  $end
$var wire 1 W \d_reg[15]_i_14  [0:0] $end
$var wire 1 Y \d_reg[15]_i_14_0  $end
$var wire 1 F s_IBUF $end
$var wire 3 k NLW__carry_CO_UNCONNECTED [2:0] $end
$var wire 3 l NLW__carry__0_CO_UNCONNECTED [2:0] $end
$var wire 4 m NLW__carry__1_CO_UNCONNECTED [3:0] $end
$var wire 3 n NLW__carry__1_O_UNCONNECTED [3:1] $end
$upscope $end
$scope module stage2_inst $end
$var wire 1 D AR [0:0] $end
$var wire 1 A CLK $end
$var wire 1 V DI [0:0] $end
$var wire 9 9 Q [8:0] $end
$var wire 3 o S [2:0] $end
$var wire 1 W \add_sub_out_reg[5]  [0:0] $end
$var wire 1 X \c_out_reg[2]  $end
$var wire 1 Y \c_out_reg[5]  $end
$var wire 1 p \d[11]_i_12_n_0  $end
$var wire 1 q \d[11]_i_13_n_0  $end
$var wire 1 r \d[11]_i_14_n_0  $end
$var wire 1 s \d[11]_i_15_n_0  $end
$var wire 1 t \d[11]_i_16_n_0  $end
$var wire 1 u \d[11]_i_17_n_0  $end
$var wire 1 v \d[11]_i_18_n_0  $end
$var wire 1 w \d[11]_i_19_n_0  $end
$var wire 1 x \d[11]_i_20_n_0  $end
$var wire 1 y \d[11]_i_21_n_0  $end
$var wire 1 z \d[11]_i_22_n_0  $end
$var wire 1 { \d[11]_i_23_n_0  $end
$var wire 1 | \d[11]_i_2_n_0  $end
$var wire 1 } \d[11]_i_3_n_0  $end
$var wire 1 J \d[11]_i_4_0  [0:0] $end
$var wire 1 K \d[11]_i_4_1  [0:0] $end
$var wire 1 O \d[11]_i_4_2  [0:0] $end
$var wire 3 ~ \d[11]_i_4_3  [2:0] $end
$var wire 1 !! \d[11]_i_4_n_0  $end
$var wire 1 "! \d[11]_i_5_n_0  $end
$var wire 1 #! \d[11]_i_6_n_0  $end
$var wire 1 $! \d[11]_i_7_n_0  $end
$var wire 1 %! \d[11]_i_8_n_0  $end
$var wire 1 &! \d[11]_i_9_n_0  $end
$var wire 1 '! \d[15]_i_15_n_0  $end
$var wire 1 (! \d[15]_i_17_n_0  $end
$var wire 1 )! \d[15]_i_18_n_0  $end
$var wire 1 *! \d[15]_i_19_n_0  $end
$var wire 1 +! \d[15]_i_20_n_0  $end
$var wire 1 ,! \d[15]_i_24_n_0  $end
$var wire 1 -! \d[15]_i_28_n_0  $end
$var wire 1 .! \d[15]_i_2_n_0  $end
$var wire 1 /! \d[15]_i_33_n_0  $end
$var wire 1 0! \d[15]_i_34_n_0  $end
$var wire 1 1! \d[15]_i_35_n_0  $end
$var wire 1 2! \d[15]_i_3_n_0  $end
$var wire 1 3! \d[15]_i_40_n_0  $end
$var wire 1 4! \d[15]_i_42_n_0  $end
$var wire 1 5! \d[15]_i_43_n_0  $end
$var wire 1 6! \d[15]_i_44_n_0  $end
$var wire 1 7! \d[15]_i_46_n_0  $end
$var wire 1 8! \d[15]_i_47_n_0  $end
$var wire 1 9! \d[15]_i_48_n_0  $end
$var wire 1 N \d[15]_i_4_0  [0:0] $end
$var wire 2 :! \d[15]_i_4_1  [1:0] $end
$var wire 1 U \d[15]_i_4_2  [0:0] $end
$var wire 2 ;! \d[15]_i_4_3  [1:0] $end
$var wire 1 <! \d[15]_i_4_n_0  $end
$var wire 1 =! \d[15]_i_51_n_0  $end
$var wire 1 >! \d[15]_i_52_n_0  $end
$var wire 1 ?! \d[15]_i_53_n_0  $end
$var wire 1 @! \d[15]_i_5_n_0  $end
$var wire 1 A! \d[15]_i_6_n_0  $end
$var wire 1 B! \d[15]_i_7_n_0  $end
$var wire 1 C! \d[15]_i_8_n_0  $end
$var wire 1 D! \d[15]_i_9_n_0  $end
$var wire 1 E! \d[3]_i_10_n_0  $end
$var wire 1 F! \d[3]_i_11_n_0  $end
$var wire 1 G! \d[3]_i_12_n_0  $end
$var wire 1 H! \d[3]_i_13_n_0  $end
$var wire 1 I! \d[3]_i_15_n_0  $end
$var wire 1 J! \d[3]_i_16_n_0  $end
$var wire 1 K! \d[3]_i_3_n_0  $end
$var wire 1 L! \d[3]_i_7_n_0  $end
$var wire 1 M! \d[3]_i_8_n_0  $end
$var wire 1 N! \d[3]_i_9_n_0  $end
$var wire 1 O! \d[7]_i_10_n_0  $end
$var wire 1 P! \d[7]_i_11_n_0  $end
$var wire 1 Q! \d[7]_i_12_n_0  $end
$var wire 1 R! \d[7]_i_13_n_0  $end
$var wire 1 S! \d[7]_i_14_n_0  $end
$var wire 1 T! \d[7]_i_15_n_0  $end
$var wire 1 U! \d[7]_i_17_n_0  $end
$var wire 1 V! \d[7]_i_18_n_0  $end
$var wire 1 W! \d[7]_i_19_n_0  $end
$var wire 1 X! \d[7]_i_20_n_0  $end
$var wire 1 Y! \d[7]_i_2_n_0  $end
$var wire 1 Z! \d[7]_i_4_n_0  $end
$var wire 1 [! \d[7]_i_5_n_0  $end
$var wire 1 \! \d[7]_i_6_n_0  $end
$var wire 1 ]! \d[7]_i_7_n_0  $end
$var wire 1 ^! \d[7]_i_8_n_0  $end
$var wire 1 _! \d[7]_i_9_n_0  $end
$var wire 1 `! \d_reg[11]_i_10_n_4  $end
$var wire 1 a! \d_reg[11]_i_10_n_5  $end
$var wire 1 b! \d_reg[11]_i_11_n_0  $end
$var wire 1 c! \d_reg[11]_i_11_n_4  $end
$var wire 1 d! \d_reg[11]_i_11_n_5  $end
$var wire 1 e! \d_reg[11]_i_11_n_6  $end
$var wire 1 f! \d_reg[11]_i_11_n_7  $end
$var wire 1 g! \d_reg[11]_i_1_n_0  $end
$var wire 1 h! \d_reg[11]_i_1_n_4  $end
$var wire 1 i! \d_reg[11]_i_1_n_5  $end
$var wire 1 j! \d_reg[11]_i_1_n_6  $end
$var wire 1 k! \d_reg[11]_i_1_n_7  $end
$var wire 16 B \d_reg[15]_0  [15:0] $end
$var wire 8 > \d_reg[15]_i_10_0  [7:0] $end
$var wire 1 l! \d_reg[15]_i_10_n_4  $end
$var wire 1 m! \d_reg[15]_i_10_n_5  $end
$var wire 1 n! \d_reg[15]_i_10_n_6  $end
$var wire 1 o! \d_reg[15]_i_10_n_7  $end
$var wire 1 p! \d_reg[15]_i_11_n_5  $end
$var wire 1 q! \d_reg[15]_i_11_n_6  $end
$var wire 1 r! \d_reg[15]_i_11_n_7  $end
$var wire 1 s! \d_reg[15]_i_12_n_4  $end
$var wire 1 t! \d_reg[15]_i_12_n_5  $end
$var wire 1 u! \d_reg[15]_i_12_n_6  $end
$var wire 1 v! \d_reg[15]_i_12_n_7  $end
$var wire 1 w! \d_reg[15]_i_13_n_0  $end
$var wire 1 x! \d_reg[15]_i_13_n_4  $end
$var wire 1 y! \d_reg[15]_i_13_n_5  $end
$var wire 1 z! \d_reg[15]_i_13_n_6  $end
$var wire 1 {! \d_reg[15]_i_13_n_7  $end
$var wire 1 |! \d_reg[15]_i_14_n_0  $end
$var wire 1 }! \d_reg[15]_i_14_n_4  $end
$var wire 1 ~! \d_reg[15]_i_14_n_5  $end
$var wire 1 !" \d_reg[15]_i_14_n_6  $end
$var wire 1 "" \d_reg[15]_i_14_n_7  $end
$var wire 1 #" \d_reg[15]_i_1_n_4  $end
$var wire 1 $" \d_reg[15]_i_1_n_5  $end
$var wire 1 %" \d_reg[15]_i_1_n_6  $end
$var wire 1 &" \d_reg[15]_i_1_n_7  $end
$var wire 1 '" \d_reg[3]_i_14_n_4  $end
$var wire 1 (" \d_reg[3]_i_1_n_0  $end
$var wire 1 )" \d_reg[3]_i_1_n_4  $end
$var wire 1 *" \d_reg[3]_i_1_n_5  $end
$var wire 1 +" \d_reg[3]_i_1_n_6  $end
$var wire 1 ," \d_reg[3]_i_1_n_7  $end
$var wire 1 -" \d_reg[3]_i_2_n_0  $end
$var wire 1 ." \d_reg[3]_i_2_n_4  $end
$var wire 1 /" \d_reg[3]_i_2_n_5  $end
$var wire 1 0" \d_reg[3]_i_2_n_6  $end
$var wire 1 1" \d_reg[3]_i_2_n_7  $end
$var wire 1 2" \d_reg[7]_i_1_n_0  $end
$var wire 1 3" \d_reg[7]_i_1_n_4  $end
$var wire 1 4" \d_reg[7]_i_1_n_5  $end
$var wire 1 5" \d_reg[7]_i_1_n_6  $end
$var wire 1 6" \d_reg[7]_i_1_n_7  $end
$var wire 1 7" \d_reg[7]_i_3_n_0  $end
$var wire 1 8" \d_reg[7]_i_3_n_4  $end
$var wire 1 9" \d_reg[7]_i_3_n_5  $end
$var wire 1 :" \d_reg[7]_i_3_n_6  $end
$var wire 1 ;" \d_reg[7]_i_3_n_7  $end
$var wire 3 <" \NLW_d_reg[11]_i_1_CO_UNCONNECTED  [2:0] $end
$var wire 4 =" \NLW_d_reg[11]_i_10_CO_UNCONNECTED  [3:0] $end
$var wire 2 >" \NLW_d_reg[11]_i_10_O_UNCONNECTED  [1:0] $end
$var wire 3 ?" \NLW_d_reg[11]_i_11_CO_UNCONNECTED  [2:0] $end
$var wire 4 @" \NLW_d_reg[15]_i_1_CO_UNCONNECTED  [3:0] $end
$var wire 4 A" \NLW_d_reg[15]_i_10_CO_UNCONNECTED  [3:0] $end
$var wire 4 B" \NLW_d_reg[15]_i_11_CO_UNCONNECTED  [3:0] $end
$var wire 1 C" \NLW_d_reg[15]_i_11_O_UNCONNECTED  [3:3] $end
$var wire 4 D" \NLW_d_reg[15]_i_12_CO_UNCONNECTED  [3:0] $end
$var wire 3 E" \NLW_d_reg[15]_i_13_CO_UNCONNECTED  [2:0] $end
$var wire 3 F" \NLW_d_reg[15]_i_14_CO_UNCONNECTED  [2:0] $end
$var wire 3 G" \NLW_d_reg[3]_i_1_CO_UNCONNECTED  [2:0] $end
$var wire 4 H" \NLW_d_reg[3]_i_14_CO_UNCONNECTED  [3:0] $end
$var wire 3 I" \NLW_d_reg[3]_i_14_O_UNCONNECTED  [2:0] $end
$var wire 3 J" \NLW_d_reg[3]_i_2_CO_UNCONNECTED  [2:0] $end
$var wire 3 K" \NLW_d_reg[7]_i_1_CO_UNCONNECTED  [2:0] $end
$var wire 3 L" \NLW_d_reg[7]_i_3_CO_UNCONNECTED  [2:0] $end
$upscope $end
$upscope $end
$upscope $end
$enddefinitions $end
#0
$dumpvars
bx !
x!!
x!"
bx "
x"!
x""
bx #
x#!
x#"
x$
x$!
x$"
x%
x%!
x%"
x&
x&!
x&"
bx '
x'!
x'"
bx (
x(!
x("
bx )
x)!
x)"
bx *
x*!
x*"
bx +
x+!
x+"
bx ,
x,!
x,"
bx -
x-!
x-"
bx .
x.!
x."
bx /
x/!
x/"
x0
x0!
x0"
bx 1
x1!
x1"
bx 2
x2!
x2"
bx 3
x3!
x3"
x4
x4!
x4"
bx 5
x5!
x5"
bx 6
x6!
x6"
bx 7
x7!
x7"
bx 8
x8!
x8"
bx 9
x9!
x9"
bx :
bx :!
x:"
bx ;
bx ;!
x;"
bx <
x<!
bx <"
bx =
x=!
b0 ="
bx >
x>!
b0 >"
x?
x?!
bx ?"
x@
x@!
bx @"
xA
xA!
bx A"
bx B
xB!
b0xx B"
xC
xC!
0C"
xD
xD!
b0xxx D"
xE
xE!
bx E"
xF
xF!
bx F"
xG
xG!
bx G"
xH
xH!
b0 H"
xI
xI!
b0 I"
xJ
xJ!
bx0 J"
xK
xK!
bx K"
xL
xL!
bx L"
xM
xM!
xN
xN!
xO
xO!
xP
xP!
xQ
xQ!
xR
xR!
xS
xS!
xT
xT!
xU
xU!
xV
xV!
xW
xW!
xX
xX!
xY
xY!
bx Z
xZ!
x[
x[!
x\
x\!
x]
x]!
x^
x^!
x_
x_!
x`
x`!
xa
xa!
xb
xb!
xc
xc!
xd
xd!
xe
xe!
xf
xf!
bx g
xg!
bx h
xh!
bx i
xi!
bx j
xj!
bx k
xk!
bx l
xl!
b0x m
xm!
b0x n
xn!
bx o
xo!
xp
xp!
xq
xq!
xr
xr!
xs
xs!
xt
xt!
xu
xu!
xv
xv!
xw
xw!
xx
xx!
xy
xy!
xz
xz!
x{
x{!
x|
x|!
x}
x}!
bx ~
x~!
$end
#100
1!!
0!"
0"!
0""
1#!
0#"
1$!
0$"
0%!
0%"
0&!
0&"
1'!
0'"
1(!
0("
1)!
0)"
b0 *
1*!
0*"
0+!
0+"
0,!
0,"
0-!
0-"
0.!
0."
1/!
0/"
10!
00"
11!
01"
02!
02"
13!
03"
04!
04"
05!
05"
06!
06"
07!
07"
08!
08"
b0 9
09!
09"
b11 :!
0:"
b11 ;!
0;"
0<!
b110 <"
0=!
b0 ="
b0 >
0>!
b0 >"
0?!
b0 ?"
0@!
b1111 @"
1A!
b11 A"
b0 B
1B!
b0 B"
1C!
0C"
1D!
b0 D"
0E!
b110 E"
0F!
b0 F"
1G
0G!
b0 G"
1H
0H!
b0 H"
1I
0I!
b0 I"
0J
0J!
b0 J"
1K
0K!
b0 K"
1L
0L!
b0 L"
1M
0M!
0N
0N!
1O
0O!
1P
0P!
1Q
0Q!
0R
0R!
1S
0S!
1T
0T!
0U
0U!
0V
0V!
0W
0W!
0X
0X!
0Y
0Y!
b111 Z
0Z!
0[!
0\!
0]!
0^!
0_!
0`!
0a!
0b!
0c!
0d!
0e!
0f!
b110 g
1g!
b11 h
0h!
0i!
b11 j
0j!
0k!
1l!
1m!
0n!
b111 o
0o!
0p
0p!
0q
1q!
0r
1r!
0s
0s!
0t
1t!
0u
1u!
0v
1v!
0w
1w!
0x
0x!
0y
0y!
0z
0z!
0{
1{!
0|
0|!
0}
1}!
b110 ~
0~!
#1000
b0 !
b0 "
b0 #
0$
0%
1&
b0 '
b0 (
b0 )
b0 +
b0 ,
b0 -
b0 .
b0 /
00
b0 1
b0 2
b0 3
04
b0 5
b0 6
b0 7
b0 8
b0 :
b0 ;
b0 <
b0 =
0?
0@
0A
1C
1D
0E
0F
0[
1\
1]
1^
1_
1`
1a
1b
1c
1d
1e
1f
b0 i
b111 k
b111 l
b1 m
b1 n
#5000
1%
1?
1@
1A
#10000
0%
0?
0@
0A
#15000
1%
1?
1@
1A
#20000
0%
0?
0@
0A
#21000
0&
0C
0D
#25000
b100100 !
b10000001 "
1$
1%
b1 5
b100100 7
b100100 8
b10000001 :
b10000001 ;
1?
1@
1A
1E
1F
0[
1\
0]
1^
0_
0`
0a
0b
1c
0d
1e
0f
b110100101 i
b0 k
b0 l
b0 m
b0 n
#30000
0%
0?
0@
0A
#35000
b1100011 !
b1101 "
1%
b1 +
b100100 -
b10000001 .
10
b10 5
b1100011 7
b1100011 8
b1101 :
b1101 ;
1?
1@
1A
1[
0\
1]
1`
1b
1c
1d
0e
1f
b1110000 i
b111 k
b0 l
b1 m
b1 n
#40000
0%
0?
0@
0A
#45000
b1100101 !
b10010 "
1%
b10100101 '
b10 +
b1 ,
b1100011 -
b1101 .
b100100 1
b10000001 2
14
b11 5
b1100101 7
b1100101 8
b10010 :
b10010 ;
1?
1@
1A
1_
1`
0b
1c
1d
1e
0f
b1110111 i
b0 k
b0 l
#50000
0%
0?
0@
0A
#55000
b1101 !
b1110110 "
1%
b1110000 '
b11 +
b10 ,
b1100101 -
b10010 .
b1100011 1
b1101 2
b100 5
b1101 7
b1101 8
b1110110 :
b1110110 ;
1?
1@
1A
1]
1^
1`
1b
0c
1f
b10000011 i
b100 k
b111 l
#60000
0%
0?
0@
0A
#65000
b11101101 !
b10001100 "
1%
b1110111 '
b100 +
b11 ,
b1101 -
b1110110 .
b1100101 1
b10010 2
b101 5
b11101101 7
b11101101 8
b10001100 :
b10001100 ;
1?
1@
1A
0[
0\
1]
1^
0_
0`
0b
0d
1f
b101111001 i
b100 k
b0 l
b0 m
b0 n
#70000
0%
0?
0@
0A
#75000
b11000110 !
b11000101 "
0$
1%
b10000011 '
b101 +
b100 ,
b11101101 -
b10001100 .
b1101 1
b1110110 2
b110 5
b11000110 7
b11000110 8
b11000101 :
b11000101 ;
1?
1@
1A
0E
0F
1[
1\
1]
1^
1_
1`
1a
1b
1c
0d
0e
1f
b1 i
b110 k
b111 l
b1 m
b1 n
#80000
0%
0?
0@
0A
#85000
b11100101 !
b1110111 "
1%
b101111001 '
b110 +
b101 ,
b11000110 -
b11000101 .
00
b11101101 1
b10001100 2
b111 5
b11100101 7
b11100101 8
b1110111 :
b1110111 ;
1?
1@
1A
0[
0\
1^
0_
0`
0d
1e
0f
b101101110 i
b1 k
b0 l
b0 m
b0 n
#90000
0%
0?
0@
0A
#95000
b10001111 !
b11110010 "
1%
b1 '
b111 +
b110 ,
b11100101 -
b1110111 .
b11000110 1
b11000101 2
04
b1000 5
b10001111 7
b10001111 8
b11110010 :
b11110010 ;
1?
1@
1A
1[
1\
0]
0^
0`
0b
0c
1d
0e
1f
b110011101 i
b111 k
b0 l
#100000
0%
0?
0@
0A
#105000
b11101000 !
b11000101 "
1%
b1101110 '
b1000 +
b111 ,
b10001111 -
b11110010 .
b11100101 1
b1110111 2
b1001 5
b11101000 7
b11101000 8
b11000101 :
b11000101 ;
1?
1@
1A
1]
0^
1_
1`
0c
1d
0e
1f
b100011 i
b0 k
b111 l
b1 m
b1 n
#105100
b110011101 9
0>!
0?!
0H!
0I!
0J!
0V!
0W!
0X!
0q
0z
0{
#110000
0%
0?
0@
0A
#115000
b10111101 !
b101101 "
1$
1%
b110011101 '
b1001 +
b1000 ,
b11101000 -
b11000101 .
b10001111 1
b11110010 2
b1010 5
b10111101 7
b10111101 8
b101101 :
b101101 ;
1?
1@
1A
1E
1F
1[
1\
0]
0^
1_
0`
0a
0b
0c
0d
0e
1f
b111101010 i
b101 k
b11 l
b0 m
b0 n
#115100
b100011 9
0=!
0>!
0?!
0I!
0N!
0U!
0V!
0W!
0X!
0u
0z
0{
#120000
0%
0?
0@
0A
#125000
b1100011 !
b1010 "
0$
1%
b100011 '
b1010 +
b1001 ,
b10111101 -
b101101 .
10
b11101000 1
b11000101 2
b1011 5
b1100011 7
b1100011 8
b1010 :
b1010 ;
1?
1@
1A
0E
0F
0[
1\
0]
0^
1_
1`
1a
0b
1c
1d
0e
0f
b1011001 i
b111 k
b110 l
b1 m
b1 n
#125100
b111101010 9
0?!
0H!
0I!
0J!
0W!
0X
0Y
0q
0{
#130000
0%
0?
0@
0A
#135000
b100000 !
b10101010 "
1$
1%
b11101010 '
b1011 +
b1010 ,
b1100011 -
b1010 .
00
b10111101 1
b101101 2
14
b1100 5
b100000 7
b100000 8
b10101010 :
b10101010 ;
1?
1@
1A
1E
1F
0[
1\
0]
0^
0_
0`
0a
1b
0c
1d
0e
0f
b111001010 i
b0 k
b10 l
b0 m
b0 n
#135100
b1011001 9
0=!
0>!
0H!
0J!
0N!
0U!
0V!
0q
0u
#140000
0%
0?
0@
0A
#145000
b10010110 !
b10011 "
1%
b1011001 '
b1100 +
b1011 ,
b100000 -
b10101010 .
10
b1100011 1
b1010 2
04
b1101 5
b10010110 7
b10010110 8
b10011 :
b10011 ;
1?
1@
1A
1[
1\
0^
0_
0`
0b
1c
0d
1e
0f
b110101001 i
b110 k
b1 l
#145100
b111001010 9
0>!
0H!
0J!
0N!
0V!
0q
0u
#150000
0%
0?
0@
0A
#155000
b1010011 !
b1101011 "
1%
b11001010 '
b1101 +
b1100 ,
b10010110 -
b10011 .
b100000 1
b10101010 2
14
b1110 5
b1010011 7
b1010011 8
b1101011 :
b1101011 ;
1?
1@
1A
0\
0]
1^
1_
1`
1b
0c
0e
0f
b10111110 i
b11 k
b100 l
b1 m
b1 n
#155100
b110101001 9
0=!
0H!
0J!
0N!
0U!
0X
0Y
0q
0u
#160000
0%
0?
0@
0A
#165000
b10 !
b10101110 "
1%
b10101001 '
b1110 +
b1101 ,
b1010011 -
b1101011 .
b10010110 1
b10011 2
b1111 5
b10 7
b10 8
b10101110 :
b10101110 ;
1?
1@
1A
0[
1\
0]
0_
0`
1c
0e
1f
b110110000 i
b110 k
b0 l
b0 m
b0 n
#165100
b10111110 9
0>!
0H!
0J!
0N!
0V!
0X!
0q
0u
0z
#170000
0%
0?
0@
0A
#175000
b11001111 !
b100011 "
0$
1%
b10111110 '
b1111 +
b1110 ,
b10 -
b10101110 .
b1010011 1
b1101011 2
b10000 5
b11001111 7
b11001111 8
b100011 :
b100011 ;
1?
1@
1A
0E
0F
0[
0\
0]
0^
1_
0`
1a
0b
0c
1d
1e
1f
b110101100 i
b111 k
b101 l
#175100
b110110000 9
0?!
0I!
0N!
0W!
0X!
0u
0z
0{
#180000
0%
0?
0@
0A
#185000
b11001010 !
b111100 "
1%
b10110000 '
b10000 +
b1111 ,
b11001111 -
b100011 .
00
b10 1
b10101110 2
b10001 5
b11001010 7
b11001010 8
b111100 :
b111100 ;
1?
1@
1A
0_
0`
1b
0c
0d
1e
0f
b110001110 i
b11 k
b100 l
#185100
b110101100 9
0>!
0?!
0I!
0V!
0W!
0X!
0z
0{
#190000
0%
0?
0@
0A
#195000
b10001010 !
b1000001 "
1%
b10101100 '
b10001 +
b10000 ,
b11001010 -
b111100 .
b11001111 1
b100011 2
04
b10010 5
b10001010 7
b10001010 8
b1000001 :
b1000001 ;
1?
1@
1A
0]
1^
1_
0`
0b
1c
0e
1f
b101001001 i
b110 k
b11 l
#195100
b110001110 9
0=!
0N!
0U!
0u
#200000
0%
0?
0@
0A
#205000
b1111000 !
b10001001 "
1$
1%
b10001110 '
b10010 +
b10001 ,
b10001010 -
b1000001 .
b11001010 1
b111100 2
b10011 5
b1111000 7
b1111000 8
b10001001 :
b10001001 ;
1?
1@
1A
1E
1F
0[
1\
1]
1^
1_
1`
0a
0b
0c
0d
1e
1f
b1 i
b0 k
b111 l
b1 m
b1 n
#205100
b101001001 9
0H!
0J!
0N!
0X
0X!
0Y
0q
0u
0z
#210000
0%
0?
0@
0A
#215000
b10110110 !
b11000110 "
0$
1%
b1001001 '
b10011 +
b10010 ,
b1111000 -
b10001001 .
10
b10001010 1
b1000001 2
b10100 5
b10110110 7
b10110110 8
b11000110 :
b11000110 ;
1?
1@
1A
0E
0F
1[
1\
0]
0^
0_
0`
1a
1b
1c
1d
1e
1f
b111110000 i
b111 k
b11 l
b0 m
b0 n
#215100
b1 9
0?!
0I!
0W!
0X
0Y
0{
#220000
0%
0?
0@
0A
#225000
b10111100 !
b101010 "
1$
1%
b100000001 '
b10100 +
b10011 ,
b10110110 -
b11000110 .
00
b1111000 1
b10001001 2
14
b10101 5
b10111100 7
b10111100 8
b101010 :
b101010 ;
1?
1@
1A
1E
1F
1[
1\
0]
0^
1_
0`
0a
0b
1c
1d
0e
1f
b111100110 i
b0 k
b11 l
#225100
b111110000 9
0=!
0>!
0H!
0J!
0U!
0V!
0X
0Y
0q
#230000
0%
0?
0@
0A
#235000
b1110001 !
b10000101 "
1%
b111110000 '
b10101 +
b10100 ,
b10111100 -
b101010 .
10
b10110110 1
b11000110 2
04
b10110 5
b1110001 7
b1110001 8
b10000101 :
b10000101 ;
1?
1@
1A
0[
1\
1]
1^
0`
0b
1c
0d
0e
0f
b111110110 i
b1 k
b0 l
b0 m
b0 n
#235100
b111100110 9
0>!
0N!
0V!
0X!
0u
0z
#240000
0%
0?
0@
0A
#245000
b111011 !
b111010 "
0$
1%
b11100110 '
b10110 +
b10101 ,
b1110001 -
b10000101 .
b10111100 1
b101010 2
14
b10111 5
b111011 7
b111011 8
b111010 :
b111010 ;
1?
1@
1A
0E
0F
0[
1\
1]
1^
1_
1`
1a
1b
1c
1d
0e
1f
b1 i
b111 k
b111 l
b1 m
b1 n
#245100
b111110110 9
0>!
0V!
#250000
0%
0?
0@
0A
#255000
b10101 !
b11110001 "
1$
1%
b11110110 '
b10111 +
b10110 ,
b111011 -
b111010 .
00
b1110001 1
b10000101 2
b11000 5
b10101 7
b10101 8
b11110001 :
b11110001 ;
1?
1@
1A
1E
1F
0[
1\
1]
1^
0_
1`
0a
0b
1c
0d
0e
0f
b110 i
b1 k
b111 l
#255100
b1 9
0=!
0>!
0H!
0J!
0N!
0U!
0V!
0X
0X!
0Y
0q
0u
0z
#260000
0%
0?
0@
0A
#265000
b1100010 !
b1001100 "
1%
b1 '
b11000 +
b10111 ,
b10101 -
b11110001 .
10
b111011 1
b111010 2
04
b11001 5
b1100010 7
b1100010 8
b1001100 :
b1001100 ;
1?
1@
1A
1[
0\
0]
1^
0_
1`
1b
1c
1d
0e
0f
b10101110 i
b0 k
b100 l
#265100
b110 9
0H!
0J!
0N!
0X!
0q
0u
0z
#270000
0%
0?
0@
0A
#275000
b10001111 !
b11111000 "
1%
b100000110 '
b11001 +
b11000 ,
b1100010 -
b1001100 .
b10101 1
b11110001 2
14
b11010 5
b10001111 7
b10001111 8
b11111000 :
b11111000 ;
1?
1@
1A
0[
0\
1]
1^
1_
0`
0b
1c
1e
1f
b110000111 i
b0 k
b111 l
b0 m
b0 n
#275100
b10101110 9
0=!
0?!
0I!
0U!
0W!
0{
#280000
0%
0?
0@
0A
#285000
b10011111 !
b1011100 "
1%
b10101110 '
b11010 +
b11001 ,
b10001111 -
b11111000 .
b1100010 1
b1001100 2
b11011 5
b10011111 7
b10011111 8
b1011100 :
b1011100 ;
1?
1@
1A
1[
1\
0^
0_
0`
0c
1f
b111111011 i
b100 k
b1 l
b0 m
b0 n
#285100
b110000111 9
0=!
0?!
0H!
0I!
0J!
0U!
0W!
0q
0{
#290000
0%
0?
0@
0A
#295000
b10001001 !
b1001001 "
0$
1%
b110000111 '
b11011 +
b11010 ,
b10011111 -
b1011100 .
b10001111 1
b11111000 2
b11100 5
b10001001 7
b10001001 8
b1001001 :
b1001001 ;
1?
1@
1A
0E
0F
0[
0\
0]
1^
1_
0`
1a
1b
1c
1d
1e
1f
b101000000 i
b111 k
b11 l
